{
  "Hostname": "localhost", // Set your minecraft server here
  "Extensions": [
    // Define additional extensions to load. Most of these
    // add additional commands.
    {
      // Entity commands
      "Implementation": "McChat.Commands.EntityCommands,McChat"
    },
    {
      // Location commands
      "Implementation": "McChat.Commands.LocationCommands,McChat"
    },
    {
      // Terrain commands
      "Implementation": "McChat.Commands.TerrainCommands,McChat"
    },
    {
      // Script commands
      "Implementation": "McChat.Script.ScriptCommands,McChat",
      "Config": {
        "ScriptDirectory": "/data/scripts"
      }
    }
  ]
}
